{
  "project_info": {
    "project_number": "890189658735",
    "project_id": "crud-example-b1c59",
    "storage_bucket": "crud-example-b1c59.appspot.com"
  },
  "client": [
    {
      "client_info": {
        "mobilesdk_app_id": "1:890189658735:android:c86b55e5d76e4e927beb9a",
        "android_client_info": {
          "package_name": "com.kyozucorp.firebase_crud"
        }
      },
      "oauth_client": [
        {
          "client_id": "890189658735-dq08o81veed201bguj1ft1fdemc8b7l9.apps.googleusercontent.com",
          "client_type": 1,
          "android_info": {
            "package_name": "com.kyozucorp.firebase_crud",
            "certificate_hash": "aa6a3c9aa4d34eb329333cc4ea4fe07b4f5671d2"
          }
        },
        {
          "client_id": "890189658735-74vocalou2vm17jgtoclf0p5hr8j7dub.apps.googleusercontent.com",
          "client_type": 3
        }
      ],
      "api_key": [
        {
          "current_key": "AIzaSyDWz6NF9LTHZusnvW3DKsz9GcmI8ppOZR0"
        }
      ],
      "services": {
        "appinvite_service": {
          "other_platform_oauth_client": [
            {
              "client_id": "890189658735-74vocalou2vm17jgtoclf0p5hr8j7dub.apps.googleusercontent.com",
              "client_type": 3
            }
          ]
        }
      }
    }
  ],
  "configuration_version": "1"
}